MONTH;CALLS
22647;350
22678;339
22706;351
22737;364
22767;369
22798;331
22828;331
22859;340
22890;346
22920;341
22951;357
22981;398
23012;381
23043;367
23071;383
23102;375
23132;353
23163;361
23193;375
23224;371
23255;373
23285;366
23316;382
23346;429
23377;406
23408;403
23437;429
23468;425
23498;427
23529;409
23559;402
23590;409
23621;419
23651;404
23682;429
23712;463
23743;428
23774;449
23802;444
23833;467
23863;474
23894;463
23924;432
23955;453
23986;462
24016;456
24047;474
24077;514
24108;489
24139;475
24167;492
24198;525
24228;527
24259;533
24289;527
24320;522
24351;526
24381;513
24412;564
24442;599
24473;572
24504;587
24532;599
24563;601
24593;611
24624;620
24654;579
24685;582
24716;592
24746;581
24777;630
24807;663
24838;638
24869;631
24898;645
24929;682
24959;601
24990;595
25020;521
25051;521
25082;516
25112;496
25143;538
25173;575
25204;537
25235;534
25263;542
25294;438
25324;547
25355;540
25385;526
25416;548
25447;555
25477;545
25508;594
25538;643
25569;625
25600;616
25628;640
25659;625
25689;637
25720;634
25750;621
25781;641
25812;654
25842;649
25873;662
25903;699
25934;672
25965;704
25993;700
26024;711
26054;715
26085;718
26115;652
26146;664
26177;695
26207;704
26238;733
26268;772
26299;716
26330;712
26359;732
26390;755
26420;761
26451;748
26481;748
26512;750
26543;744
26573;731
26604;782
26634;810
26665;777
26696;816
26724;840
26755;868
26785;872
26816;811
26846;810
26877;762
26908;634
26938;626
26969;649
26999;697
27030;657
27061;549
27089;162
27120;177
27150;175
27181;162
27211;161
27242;165
27273;170
27303;172
27334;178
27364;186
27395;178
27426;178
27454;189
27485;205
27515;202
27546;185
27576;193
27607;200
27638;196
27668;204
27699;206
27729;227
27760;225
27791;217
27820;219
27851;236
27881;253
27912;213
27942;205
27973;210
28004;216
28034;218
28065;235
28095;241
