﻿{
  "question": {
    "text": "Який js-фреймворк краще використовувати?",
    "author": "Іван",
    "date": "20/10/2013",
    "answers": [
      {
        "text": "AngularJS!",
        "author": "Вова Сидоров",
        "date": "20/10/2013",
        "rate": 2
      },
      {
        "text": "AngularJS краще всіх",
        "author": "Олег Кузнєцов",
        "date": "20/10/2013",
        "rate": 0
      },
      {
        "text": "Я б використовував knockout",
        "author": "Невідомий",
        "date": "20/10/2013",
        "rate": 1
      }
    ]
  }
}